Homework 3
…
glass <- read_csv("../glass.data",
                  col_names = c("Id", "RI", "Na", "Mg", "Al", "Si", "K", "Ca",
                                "Ba", "Fe", "Type_of_glass"))

Rows: 214 Columns: 11
── Column specification ────────────────────────────────────────────────────────
Delimiter: ","
dbl (11): Id, RI, Na, Mg, Al, Si, K, Ca, Ba, Fe, Type_of_glass

ℹ Use `spec()` to retrieve the full column specification for this data.
ℹ Specify the column types or set `show_col_types = FALSE` to quiet this message.

glass

# A tibble: 214 × 11
      Id    RI    Na    Mg    Al    Si     K    Ca    Ba    Fe Type_of_glass
   <dbl> <dbl> <dbl> <dbl> <dbl> <dbl> <dbl> <dbl> <dbl> <dbl>         <dbl>
 1     1  1.52  13.6  4.49  1.1   71.8  0.06  8.75     0  0                1
 2     2  1.52  13.9  3.6   1.36  72.7  0.48  7.83     0  0                1
 3     3  1.52  13.5  3.55  1.54  73.0  0.39  7.78     0  0                1
 4     4  1.52  13.2  3.69  1.29  72.6  0.57  8.22     0  0                1
 5     5  1.52  13.3  3.62  1.24  73.1  0.55  8.07     0  0                1
 6     6  1.52  12.8  3.61  1.62  73.0  0.64  8.07     0  0.26             1
 7     7  1.52  13.3  3.6   1.14  73.1  0.58  8.17     0  0                1
 8     8  1.52  13.2  3.61  1.05  73.2  0.57  8.24     0  0                1
 9     9  1.52  14.0  3.58  1.37  72.1  0.56  8.3      0  0                1
10    10  1.52  13    3.6   1.36  73.0  0.57  8.4      0  0.11             1
# ℹ 204 more rows
…
glass

# A tibble: 38 × 11
      Id    RI    Na    Mg    Al    Si     K    Ca    Ba    Fe Type_of_glass
   <dbl> <dbl> <dbl> <dbl> <dbl> <dbl> <dbl> <dbl> <dbl> <dbl> <chr>        
 1   177  1.52  14    2.39  1.56  72.4  0     9.57  0        0 tableware    
 2   178  1.52  13.8  2.41  1.19  72.8  0     9.77  0        0 tableware    
 3   179  1.52  14.5  2.24  1.62  72.4  0     9.26  0        0 tableware    
 4   180  1.52  14.1  2.19  1.66  72.7  0     9.32  0        0 tableware    
 5   181  1.51  14.4  1.74  1.54  74.6  0     7.59  0        0 tableware    
 6   182  1.52  15.0  0.78  1.74  72.5  0     9.95  0        0 tableware    
 7   183  1.52  14.2  0     2.09  72.7  0    10.9   0        0 tableware    
 8   184  1.52  14.6  0     0.56  73.5  0    11.2   0        0 tableware    
 9   185  1.51  17.4  0     0.34  75.4  0     6.65  0        0 tableware    
10   186  1.51  13.7  3.2   1.81  72.8  1.76  5.43  1.19     0 headlamps    
# ℹ 28 more rows
…
Rows: 1484 Columns: 10
── Column specification ────────────────────────────────────────────────────────

chr (2): seq_name, class
dbl (8): mcg, gvh, alm, mit, erl, pox, vac, nuc

ℹ Use `spec()` to retrieve the full column specification for this data.
ℹ Specify the column types or set `show_col_types = FALSE` to quiet this message.

yeast

# A tibble: 1,484 × 10
   seq_name     mcg   gvh   alm   mit   erl   pox   vac   nuc class
   <chr>      <dbl> <dbl> <dbl> <dbl> <dbl> <dbl> <dbl> <dbl> <chr>
 1 ADT1_YEAST  0.58  0.61  0.47  0.13   0.5   0    0.48  0.22 MIT  
 2 ADT2_YEAST  0.43  0.67  0.48  0.27   0.5   0    0.53  0.22 MIT  
 3 ADT3_YEAST  0.64  0.62  0.49  0.15   0.5   0    0.53  0.22 MIT  
 4 AAR2_YEAST  0.58  0.44  0.57  0.13   0.5   0    0.54  0.22 NUC  
 5 AATM_YEAST  0.42  0.44  0.48  0.54   0.5   0    0.48  0.22 MIT  
 6 AATC_YEAST  0.51  0.4   0.56  0.17   0.5   0.5  0.49  0.22 CYT  
 7 ABC1_YEAST  0.5   0.54  0.48  0.65   0.5   0    0.53  0.22 MIT  
 8 BAF1_YEAST  0.48  0.45  0.59  0.2    0.5   0    0.58  0.34 NUC  
 9 ABF2_YEAST  0.55  0.5   0.66  0.36   0.5   0    0.49  0.22 MIT  
10 ABP1_YEAST  0.4   0.39  0.6   0.15   0.5   0    0.58  0.3  CYT  
# ℹ 1,474 more rows
…
Task 3: Combining Excel and Delimited Data

For this task we will be reading in data from an excel workbook. The workbook contains two sheets, and for the first park of the task we will access the first sheet. The first sheet contains the actual data.

library(readxl)
white_wine <- read_excel("../white-wine.xlsx",
                         sheet = excel_sheets("../white-wine.xlsx")[1])

white_wine

# A tibble: 4,898 × 12
   `fixed acidity` `volatile acidity` `citric acid` `residual sugar` chlorides
             <dbl>              <dbl>         <dbl>            <dbl>     <dbl>
 1               7               0.27          0.36             20.7     0.045
 2              63               0.3           0.34              1.6     0.049
 3              81               0.28          0.4               6.9     0.05 
 4              72               0.23          0.32              8.5     0.058
 5              72               0.23          0.32              8.5     0.058
 6              81               0.28          0.4               6.9     0.05 
 7              62               0.32          0.16              7       0.045
 8               7               0.27          0.36             20.7     0.045
 9              63               0.3           0.34              1.6     0.049
10              81               0.22          0.43              1.5     0.044
# ℹ 4,888 more rows
# ℹ 7 more variables: `free sulfur dioxide` <dbl>,
#   `total sulfur dioxide` <dbl>, density <dbl>, pH <dbl>, sulphates <dbl>,
#   alcohol <dbl>, quality <dbl>

If you notice, some of the variable names are surrounded by backticks. We do not want this so we will rename them using the variable names in the second sheet of the excel workbook.

wine_var_names <- read_excel("../white-wine.xlsx",
                            sheet = excel_sheets("../white-wine.xlsx")[2])

colnames(white_wine) <- wine_var_names$Variables

white_wine

# A tibble: 4,898 × 12
   fixed_acidity volatile_acidity citric_acid residual_sugar chlorides
           <dbl>            <dbl>       <dbl>          <dbl>     <dbl>
 1             7             0.27        0.36           20.7     0.045
 2            63             0.3         0.34            1.6     0.049
 3            81             0.28        0.4             6.9     0.05 
 4            72             0.23        0.32            8.5     0.058
 5            72             0.23        0.32            8.5     0.058
 6            81             0.28        0.4             6.9     0.05 
 7            62             0.32        0.16            7       0.045
 8             7             0.27        0.36           20.7     0.045
 9            63             0.3         0.34            1.6     0.049
10            81             0.22        0.43            1.5     0.044
# ℹ 4,888 more rows
# ℹ 7 more variables: free_sulfur_dioxide <dbl>, total_sulfur_dioxide <dbl>,
#   density <dbl>, pH <dbl>, sulphates <dbl>, alcohol <dbl>, quality <dbl>
…
ℹ Use `spec()` to retrieve the full column specification for this data.
ℹ Specify the column types or set `show_col_types = FALSE` to quiet this message.

colnames(red_wine) <- wine_var_names$Variables

red_wine <- red_wine |>
              mutate(type = "red")

red_wine

# A tibble: 1,599 × 13
   fixed_acidity volatile_acidity citric_acid residual_sugar chlorides
           <dbl>            <dbl>       <dbl>          <dbl>     <dbl>
 1           7.4             0.7         0               1.9     0.076
 2           7.8             0.88        0               2.6     0.098
 3           7.8             0.76        0.04            2.3     0.092
 4          11.2             0.28        0.56            1.9     0.075
 5           7.4             0.7         0               1.9     0.076
 6           7.4             0.66        0               1.8     0.075
 7           7.9             0.6         0.06            1.6     0.069
 8           7.3             0.65        0               1.2     0.065
 9           7.8             0.58        0.02            2       0.073
10           7.5             0.5         0.36            6.1     0.071
# ℹ 1,589 more rows
# ℹ 8 more variables: free_sulfur_dioxide <dbl>, total_sulfur_dioxide <dbl>,
#   density <dbl>, pH <dbl>, sulphates <dbl>, alcohol <dbl>, quality <dbl>,
#   type <chr>

Next, we will combine the red and white wine data sets using the bind_rows() function from the dplyr package

wine <- dplyr::bind_rows(white_wine, red_wine)
wine

# A tibble: 6,497 × 13
   fixed_acidity volatile_acidity citric_acid residual_sugar chlorides
           <dbl>            <dbl>       <dbl>          <dbl>     <dbl>
 1             7             0.27        0.36           20.7     0.045
 2            63             0.3         0.34            1.6     0.049
 3            81             0.28        0.4             6.9     0.05 
 4            72             0.23        0.32            8.5     0.058
 5            72             0.23        0.32            8.5     0.058
 6            81             0.28        0.4             6.9     0.05 
 7            62             0.32        0.16            7       0.045
 8             7             0.27        0.36           20.7     0.045
 9            63             0.3         0.34            1.6     0.049
10            81             0.22        0.43            1.5     0.044
# ℹ 6,487 more rows
# ℹ 8 more variables: free_sulfur_dioxide <dbl>, total_sulfur_dioxide <dbl>,
#   density <dbl>, pH <dbl>, sulphates <dbl>, alcohol <dbl>, quality <dbl>,
#   type <chr>

We will now write a chain that does the following: select observations with quality > 6.5 and alcohol < 132, sorts from highest to lowest quality, only certain variables, and mean and standard deviation of alcohol variable for each quality

wine <- wine |>
  filter(quality > 6.5 & alcohol < 132) |>
  arrange(desc(quality)) |>
  select(ends_with("acidity"), alcohol, type, quality) |>
  group_by(quality) |>
  mutate(mean_alcohol = mean(alcohol), sd_alcohol = sd(alcohol))

wine

# A tibble: 1,206 × 7
# Groups:   quality [3]
   fixed_acidity volatile_acidity alcohol type  quality mean_alcohol sd_alcohol
           <dbl>            <dbl>   <dbl> <chr>   <dbl>        <dbl>      <dbl>
 1            91             0.27     104 white       9        122.        10.1
 2            66             0.36     124 white       9        122.        10.1
 3            74             0.24     125 white       9        122.        10.1
 4            69             0.36     127 white       9        122.        10.1
 5            71             0.26     129 white       9        122.        10.1
 6            62             0.66     128 white       8         94.1       42.8
 7            62             0.66     128 white       8         94.1       42.8
 8            68             0.26     105 white       8         94.1       42.8
 9            67             0.23     107 white       8         94.1       42.8
10            67             0.23     107 white       8         94.1       42.8
# ℹ 1,196 more rows
…
Our next task will be to return all of the players in the hall of fame, the year they were voted into the hall of fame, and their category.

hall_of_fame <- tbl(con, "HallOfFame")

hall_of_fame <- as_data_frame(hall_of_fame) |>
  filter(inducted == "Y") |>
  select(ends_with("ID"), category ) 

Warning: `as_data_frame()` was deprecated in tibble 2.0.0.
ℹ Please use `as_tibble()` (with slightly different semantics) to convert to a
  tibble, or `as.data.frame()` to convert to a data frame.

as_tibble(hall_of_fame)

# A tibble: 340 × 3
   playerID  yearID category         
   <chr>      <int> <chr>            
 1 cobbty01    1936 Player           
 2 ruthba01    1936 Player           
 3 wagneho01   1936 Player           
 4 mathech01   1936 Player           
 5 johnswa01   1936 Player           
 6 lajoina01   1937 Player           
 7 speaktr01   1937 Player           
 8 youngcy01   1937 Player           
 9 bulkemo99   1937 Pioneer/Executive
10 johnsba99   1937 Pioneer/Executive
# ℹ 330 more rows

Next, we will combine this table with the People table, so we can see their first and last names

names <- tbl(con, "People")
names <- as_data_frame(names) |>
  select(playerID, nameFirst, nameLast)

hall_of_fame_2 <- merge(hall_of_fame, names)

as_tibble(hall_of_fame_2)

# A tibble: 338 × 5
   playerID  yearID category nameFirst nameLast 
   <chr>      <int> <chr>    <chr>     <chr>    
 1 aaronha01   1982 Player   Hank      Aaron    
 2 alexape01   1938 Player   Pete      Alexander
 3 alomaro01   2011 Player   Roberto   Alomar   
 4 alstowa01   1983 Manager  Walter    Alston   
 5 andersp01   2000 Manager  Sparky    Anderson 
 6 ansonca01   1939 Player   Cap       Anson    
 7 aparilu01   1984 Player   Luis      Aparicio 
 8 applilu01   1964 Player   Luke      Appling  
 9 ashburi01   1995 Player   Richie    Ashburn  
10 averiea01   1975 Player   Earl      Averill  
# ℹ 328 more rows

Now, we want to return only the playerID, G, W, and L columns from the managers table. We will use chaining to then determine their overall win/loss record

manager <- tbl(con, "Managers")
manager <- as_data_frame(manager) |>
  select(playerID, G, W, L) |>
  group_by(playerID) |>
  summarize(G_managed = sum(G, na.rm = TRUE),
            Total_W = sum(W, na.rm = TRUE),
            Total_L = sum(L, na.rm = TRUE)) 

as_tibble(manager)

# A tibble: 749 × 4
   playerID  G_managed Total_W Total_L
   <chr>         <int>   <int>   <int>
 1 actama99        890     372     518
 2 adairbi99        10       4       6
 3 adcocjo01       162      75      87
 4 addybo01         31       8      23
 5 allenbo01       179      87      87
 6 allisdo01        23       2      21
 7 alomasa02        13       8       5
 8 aloufe01       2053    1033    1020
 9 alstowa01      3658    2040    1613
10 altobjo01       844     437     407
# ℹ 739 more rows

Now, I will create a new variable that calculates the managers win/loss percentage

manager <- manager |>
  mutate(Percentage = Total_W / G_managed) |>
  arrange(desc(Percentage))

as_tibble(manager)

# A tibble: 749 × 5
   playerID  G_managed Total_W Total_L Percentage
   <chr>         <int>   <int>   <int>      <dbl>
 1 bensove01         1       1       0          1
 2 burwebi01         1       1       0          1
 3 cohenan01         1       1       0          1
 4 ebeldi99          3       3       0          1
 5 falkbi01          1       1       0          1
 6 hardeme01         3       3       0          1
 7 simmote01         1       1       0          1
 8 steinte01         2       2       0          1
 9 sukefcl01         2       2       0          1
10 tamarjo01         1       1       0          1
# ℹ 739 more rows

Now we return information where the people managed a team and were inducted into the hall of hame.

manager_hall <- merge(manager, hall_of_fame_2)
as_tibble(manager_hall)

# A tibble: 97 × 9
   playerID  G_managed Total_W Total_L Percentage yearID category      nameFirst
   <chr>         <int>   <int>   <int>      <dbl>  <int> <chr>         <chr>    
 1 alstowa01      3658    2040    1613      0.558   1983 Manager       Walter   
 2 andersp01      4030    2194    1834      0.544   2000 Manager       Sparky   
 3 ansonca01      2288    1296     947      0.566   1939 Player        Cap      
 4 applilu01        40      10      30      0.25    1964 Player        Luke     
 5 baineha01         4       1       3      0.25    2019 Player        Harold   
 6 bancrda01       615     249     363      0.405   1971 Player        Dave     
 7 barroed99       639     310     320      0.485   1953 Pioneer/Exec… Ed       
 8 berrayo01       930     484     444      0.520   1972 Player        Yogi     
 9 bottoji01        78      21      56      0.269   1974 Player        Jim      
10 boudrlo01      2404    1162    1224      0.483   1970 Player        Lou      
# ℹ 87 more rows
# ℹ 1 more variable: nameLast <chr>
